<?xml version="1.0" encoding="UTF-8" standalone="no"?>
<!-- Created with Inkscape (http://www.inkscape.org/) -->

<svg
   xmlns:dc="http://purl.org/dc/elements/1.1/"
   xmlns:cc="http://creativecommons.org/ns#"
   xmlns:rdf="http://www.w3.org/1999/02/22-rdf-syntax-ns#"
   xmlns:svg="http://www.w3.org/2000/svg"
   xmlns="http://www.w3.org/2000/svg"
   xmlns:sodipodi="http://sodipodi.sourceforge.net/DTD/sodipodi-0.dtd"
   xmlns:inkscape="http://www.inkscape.org/namespaces/inkscape"
   width="210mm"
   height="297mm"
   viewBox="0 0 210 297"
   version="1.1"
   id="svg8"
   sodipodi:docname="folha_unica.svg"
   inkscape:version="0.92.4 (5da689c313, 2019-01-14)">
  <defs
     id="defs2" />
  <sodipodi:namedview
     id="base"
     pagecolor="#ffffff"
     bordercolor="#666666"
     borderopacity="1.0"
     inkscape:pageopacity="0.0"
     inkscape:pageshadow="2"
     inkscape:zoom="0.35"
     inkscape:cx="633.82437"
     inkscape:cy="437.16749"
     inkscape:document-units="mm"
     inkscape:current-layer="layer1"
     showgrid="false"
     inkscape:window-width="1366"
     inkscape:window-height="705"
     inkscape:window-x="-8"
     inkscape:window-y="-8"
     inkscape:window-maximized="1" />
  <metadata
     id="metadata5">
    <rdf:RDF>
      <cc:Work
         rdf:about="">
        <dc:format>image/svg+xml</dc:format>
        <dc:type
           rdf:resource="http://purl.org/dc/dcmitype/StillImage" />
        <dc:title></dc:title>
      </cc:Work>
    </rdf:RDF>
  </metadata>
  <g
     inkscape:label="Camada 1"
     inkscape:groupmode="layer"
     id="layer1">
    <g
       id="g137">
      <path
         inkscape:connector-curvature="0"
         id="path21"
         d="m 97.539463,207.34193 c -0.64148,-0.12435 -1.98276,-0.62914 -2.98061,-1.12174 -3.00693,-1.48441 -5.1239,-3.95217 -6.10012,-7.11093 -0.49934,-1.61572 -0.50907,-2.72117 -0.50907,-57.83545 0,-55.114295 0.01,-56.219747 0.50907,-57.835462 1.30726,-4.229905 5.11657,-7.552621 9.4695,-8.259889 0.95413,-0.155027 14.927277,-0.253255 36.157027,-0.254176 l 34.60193,-0.0015 13.80062,13.80243 13.80063,13.802427 v 47.46721 c 0,46.44634 -0.0109,47.50264 -0.50907,49.11441 -1.30726,4.2299 -5.11657,7.55262 -9.4695,8.25989 -1.9617,0.31874 -87.120487,0.29263 -88.770407,-0.0272 z m 86.762507,-53.95129 0.0656,-42.18214 h -12.05026 -12.05026 l -0.0674,-12.116841 -0.0674,-12.116836 h -30.06531 -30.06531 l -0.0665,54.039797 c -0.0366,29.72189 -0.0147,54.17596 0.0485,54.34238 0.087,0.22919 10.319327,0.29206 42.183797,0.25919 l 42.0689,-0.0434 z m -54.23149,11.99072 -11.91686,-11.91898 8.9373,-0.0683 8.93731,-0.0683 0.0669,-15.09745 0.0669,-15.09745 h 5.95705 5.95705 l 0.0669,15.09745 0.0669,15.09745 8.93731,0.0683 8.9373,0.0683 -11.91686,11.91898 c -6.55428,6.55544 -11.97613,11.91898 -12.04857,11.91898 -0.0724,0 -5.49429,-5.36354 -12.04857,-11.91898 z"
         style="fill:#000000;stroke-width:0.25918368" />
    </g>
  </g>
</svg>
